%!PS-Adobe-3.0 EPSF-3.0
%%Creator: cairo 1.8.10 (http://cairographics.org)
%%CreationDate: Fri May 30 13:55:27 2014
%%Pages: 1
%%BoundingBox: 0 0 203 204
%%DocumentData: Clean7Bit
%%LanguageLevel: 2
%%EndComments
%%BeginProlog
/cairo_eps_state save def
/dict_count countdictstack def
/op_count count 1 sub def
userdict begin
/q { gsave } bind def
/Q { grestore } bind def
/cm { 6 array astore concat } bind def
/w { setlinewidth } bind def
/J { setlinecap } bind def
/j { setlinejoin } bind def
/M { setmiterlimit } bind def
/d { setdash } bind def
/m { moveto } bind def
/l { lineto } bind def
/c { curveto } bind def
/h { closepath } bind def
/re { exch dup neg 3 1 roll 5 3 roll moveto 0 rlineto
      0 exch rlineto 0 rlineto closepath } bind def
/S { stroke } bind def
/f { fill } bind def
/f* { eofill } bind def
/B { fill stroke } bind def
/B* { eofill stroke } bind def
/n { newpath } bind def
/W { clip } bind def
/W* { eoclip } bind def
/BT { } bind def
/ET { } bind def
/pdfmark where { pop globaldict /?pdfmark /exec load put }
    { globaldict begin /?pdfmark /pop load def /pdfmark
    /cleartomark load def end } ifelse
/BDC { mark 3 1 roll /BDC pdfmark } bind def
/EMC { mark /EMC pdfmark } bind def
/cairo_store_point { /cairo_point_y exch def /cairo_point_x exch def } def
/Tj { show currentpoint cairo_store_point } bind def
/TJ {
  {
    dup
    type /stringtype eq
    { show } { -0.001 mul 0 cairo_font_matrix dtransform rmoveto } ifelse
  } forall
  currentpoint cairo_store_point
} bind def
/cairo_selectfont { cairo_font_matrix aload pop pop pop 0 0 6 array astore
    cairo_font exch selectfont cairo_point_x cairo_point_y moveto } bind def
/Tf { pop /cairo_font exch def /cairo_font_matrix where
      { pop cairo_selectfont } if } bind def
/Td { matrix translate cairo_font_matrix matrix concatmatrix dup
      /cairo_font_matrix exch def dup 4 get exch 5 get cairo_store_point
      /cairo_font where { pop cairo_selectfont } if } bind def
/Tm { 2 copy 8 2 roll 6 array astore /cairo_font_matrix exch def
      cairo_store_point /cairo_font where { pop cairo_selectfont } if } bind def
/g { setgray } bind def
/rg { setrgbcolor } bind def
/d1 { setcachedevice } bind def
%%EndProlog
%%Page: 1 1
%%BeginPageSetup
%%PageBoundingBox: 0 0 203 204
%%EndPageSetup
q
1 1 0 rg
101.906 203.412 m 45.844 203.412 0.398 157.967 0.398 101.904 c 0.398 
45.846 45.844 0.4 101.906 0.4 c 157.965 0.4 203.41 45.846 203.41 
101.904 c 203.41 157.967 157.965 203.412 101.906 203.412 c h
138.035 164.271 m 147.297 164.271 154.809 153.103 154.809 139.322 c 
154.809 125.545 147.297 114.377 138.035 114.377 c 128.77 114.377 
121.262 125.545 121.262 139.322 c 121.262 153.103 128.77 164.271 
138.035 164.271 c h
65.777 164.271 m 75.039 164.271 82.551 153.103 82.551 139.322 c 82.551 
125.545 75.039 114.377 65.777 114.377 c 56.512 114.377 49 125.549 49 
139.326 c 49 153.103 56.512 164.271 65.777 164.271 c h
101.906 27.068 m 72.375 27.068 46.492 42.65 32.012 66.037 c 50.652 
51.955 75.113 43.412 101.906 43.412 c 128.695 43.412 153.16 51.955 
171.797 66.037 c 157.32 42.646 131.434 27.068 101.906 27.068 c h
101.906 27.068 m f
0 g
0.8 w
0 J
0 j
[] 0.0 d
4 M q 1 0 0 -1 0 203.810394 cm
101.906 0.398 m 45.844 0.398 0.398 45.844 0.398 101.906 c 0.398 157.965 
45.844 203.41 101.906 203.41 c 157.965 203.41 203.41 157.965 203.41 
101.906 c 203.41 45.844 157.965 0.398 101.906 0.398 c h
138.035 39.539 m 147.297 39.539 154.809 50.707 154.809 64.488 c 154.809 
78.266 147.297 89.434 138.035 89.434 c 128.77 89.434 121.262 78.266 
121.262 64.488 c 121.262 50.707 128.77 39.539 138.035 39.539 c h
65.777 39.539 m 75.039 39.539 82.551 50.707 82.551 64.488 c 82.551 
78.266 75.039 89.434 65.777 89.434 c 56.512 89.434 49 78.262 49 64.484 
c 49 50.707 56.512 39.539 65.777 39.539 c h
101.906 176.742 m 72.375 176.742 46.492 161.16 32.012 137.773 c 50.652 
151.855 75.113 160.398 101.906 160.398 c 128.695 160.398 153.16 151.855 
171.797 137.773 c 157.32 161.164 131.434 176.742 101.906 176.742 c h
101.906 176.742 m S Q
101.906 43.412 m 75.113 43.412 50.652 51.955 32.012 66.037 c 46.492 
42.65 72.375 27.068 101.906 27.068 c 131.434 27.068 157.32 42.65 
171.797 66.037 c 153.16 51.955 128.695 43.412 101.906 43.412 c h
65.777 114.377 m 75.039 114.377 82.551 125.549 82.551 139.326 c 82.551 
153.103 75.039 164.271 65.777 164.271 c 56.512 164.271 49 153.103 49 
139.326 c 49 125.549 56.512 114.377 65.777 114.377 c h
138.035 114.377 m 147.297 114.377 154.809 125.549 154.809 139.326 c 
154.809 153.103 147.297 164.271 138.035 164.271 c 128.77 164.271 
121.262 153.103 121.262 139.326 c 121.262 125.549 128.77 114.377 
138.035 114.377 c h
138.035 114.377 m f
q 1 0 0 -1 0 203.810394 cm
101.906 160.398 m 75.113 160.398 50.652 151.855 32.012 137.773 c 46.492 
161.16 72.375 176.742 101.906 176.742 c 131.434 176.742 157.32 161.16 
171.797 137.773 c 153.16 151.855 128.695 160.398 101.906 160.398 c h
65.777 89.434 m 75.039 89.434 82.551 78.262 82.551 64.484 c 82.551 
50.707 75.039 39.539 65.777 39.539 c 56.512 39.539 49 50.707 49 64.484 
c 49 78.262 56.512 89.434 65.777 89.434 c h
138.035 89.434 m 147.297 89.434 154.809 78.262 154.809 64.484 c 154.809 
50.707 147.297 39.539 138.035 39.539 c 128.77 39.539 121.262 50.707 
121.262 64.484 c 121.262 78.262 128.77 89.434 138.035 89.434 c h
138.035 89.434 m S Q
Q
showpage
%%Trailer
count op_count sub {pop} repeat
countdictstack dict_count sub {end} repeat
cairo_eps_state restore
%%EOF
